<svg width="122" height="30" viewBox="0 0 122 30" fill="none" xmlns="http://www.w3.org/2000/svg">
<path fill-rule="evenodd" clip-rule="evenodd" d="M7.0485 8.57564C10.1163 8.81246 8.05252 12.2464 6.99272 14.6146C0.745468 26.3965 7.66207 27.699 6.7696 26.7517C5.4309 25.3308 7.99674 19.8247 8.72187 18.1077C10.3395 14.0226 8.33141 22.9626 8.38719 23.5547C8.55453 25.094 13.1842 24.5019 10.953 22.4889C10.5626 22.1929 10.7299 21.6601 10.7857 21.2456C11.3435 18.4038 12.6264 14.4962 13.4631 11.4767C13.6304 10.8847 13.8535 10.5294 14.0209 10.5294C14.5787 10.4702 12.2359 17.8117 12.6264 18.4038C15.0249 15.7395 16.1963 11.7135 15.9731 9.40453C15.8058 7.21392 14.8018 5.37856 12.2359 5.08253C10.7857 4.96412 9.05654 4.96411 7.21583 5.14172C5.65402 5.26013 0.466572 6.02981 0.0203403 7.80597C-0.146997 8.45723 0.745468 8.69407 1.69371 8.63486C5.04045 8.39804 4.70578 8.45722 7.0485 8.57564Z" fill="#797E8E"/>
<path fill-rule="evenodd" clip-rule="evenodd" d="M14.5152 -1.98682e-08C14.7576 -1.98682e-08 14.9394 0.060613 15.1212 0.121219C15.6061 0.24243 15.9697 0.484876 16.2727 0.787904C16.5758 1.15154 16.8182 1.51515 16.9394 1.93939C17 2.18182 17 2.36366 17 2.60608C17 2.8485 17 3.03032 16.9394 3.21214C16.8182 3.69698 16.5758 3.99999 16.2727 4.36362C15.9697 4.66665 15.6061 4.84849 15.1212 4.90909C14.697 5.0303 14.3333 5.0303 13.8485 4.90909C13.4242 4.78788 13.0606 4.54543 12.7576 4.24241C12.3939 3.87877 12.2121 3.51516 12.0909 3.09092C11.9697 2.60607 11.9697 2.24243 12.0909 1.75758C12.2121 1.33334 12.3939 0.969714 12.7576 0.666685C13.0606 0.363657 13.4242 0.181839 13.8485 0.0606279C14.0909 2.19146e-05 14.2727 -1.98682e-08 14.5152 -1.98682e-08Z" fill="#797E8E"/>
<path fill-rule="evenodd" clip-rule="evenodd" d="M15.3401 22.0137C11.6687 22.2987 7.82786 23.4954 6.0204 24.3503C3.98701 25.433 4.72129 27.9405 10.7085 26.6298L16.5828 25.0341C19.068 24.4642 18.0513 21.7858 15.3401 22.0137Z" fill="#797E8E"/>
<path fill-rule="evenodd" clip-rule="evenodd" d="M19.5675 1.53492C19.3825 3.10779 17.7791 11.6129 18.0257 18.4287C18.1491 21.5744 18.9508 26.7591 19.9992 28.6232C21.6643 31.5942 23.206 29.031 22.7127 27.6912C21.3559 24.3124 21.1093 16.2733 26.4129 18.6617C28.0163 19.3608 29.6198 20.7589 31.1615 22.0405C32.0249 22.7395 33.1966 23.6716 34.06 23.2056C37.8836 20.9919 28.8797 16.215 27.7696 15.749C23.8227 14.0596 26.4129 11.6129 29.4347 9.74878C29.6814 9.63227 29.8664 9.51578 30.1131 9.39927C31.4082 8.70022 36.0335 5.43796 34.3067 2.75825C33.5667 1.59316 32.7033 2.00097 31.5932 3.1078C29.9281 4.85543 27.2146 8.5837 23.8844 8.99148C22.1576 9.16625 21.9726 7.70989 22.8977 2.00095C23.021 1.01063 22.9594 0.253341 21.8493 0.020324C20.6159 -0.15444 19.5675 0.835871 19.5675 1.53492Z" fill="#797E8E"/>
<path fill-rule="evenodd" clip-rule="evenodd" d="M25.5333 19H25.4667C25.9333 19 26.3333 19.1333 26.7333 19.3333C27.1333 19.5333 27.4 19.8666 27.6667 20.2666C27.8667 20.6666 28 21.0667 28 21.4667V21.5333C28 21.9333 27.8667 22.3333 27.6667 22.7333C27.4 23.1333 27.1333 23.4667 26.7333 23.6667C26.3333 23.8667 25.9333 24 25.5333 24C25 24 24.6 23.8667 24.2667 23.6667C23.8667 23.4667 23.5333 23.1333 23.3333 22.7333C23.1333 22.3333 23 21.9333 23 21.5333C23 21.0667 23.1333 20.6666 23.3333 20.2666C23.5333 19.8666 23.8667 19.5333 24.2667 19.3333C24.6 19.1333 25 19 25.4667 19H25.5333Z" fill="#797E8E"/>
<path fill-rule="evenodd" clip-rule="evenodd" d="M55.3261 19.6H46.3986C46 19.6 46 19.36 46 19.36C46 18.24 51.2609 11.44 51.2609 9.76001C51.2609 6.48001 46.3188 9.20001 46.3188 6.96001C46.3188 6.32001 46.6377 6 47.1957 6H55.4058C55.8841 6 55.8841 6.15999 55.8841 6.23999C55.8841 7.43999 50.8623 14 50.8623 15.84C50.8623 17.04 51.9783 17.68 53.0145 17.68H55.4855C55.8841 17.68 56.2826 18.16 56.2826 18.64C56.2826 19.28 55.7246 19.6 55.3261 19.6ZM67.1232 19.6C66.5652 19.6 65.9275 19.28 65.2899 19.28C64.0942 19.28 63.058 20 61.8623 20C59.0725 20 57.7971 17.52 57.7971 15.2C57.7971 12.96 59.2319 10.4 62.0217 10.4C63.2971 10.4 64.2536 11.12 65.529 11.12C66.0072 11.12 66.3261 11.04 66.6449 10.96C66.9638 10.88 68 10.72 68 11.36V19.04C68 19.36 67.6812 19.6 67.1232 19.6ZM63.2174 12C61.4638 12 60.1884 13.44 60.1884 15.2C60.1884 16.8 61.0652 18.4 63.2174 18.4C64.8116 18.4 66.087 17.12 66.087 15.2C66.087 13.92 65.2899 12 63.2174 12Z" fill="#797E8E"/>
<path fill-rule="evenodd" clip-rule="evenodd" d="M80.7339 19.442C80.4159 19.5193 80.0979 19.5193 79.7798 19.5193C77.8716 19.5193 77.7125 18.9013 76.6789 17.3562C76.2018 16.661 75.0887 14.8068 74.055 14.8068C72.3853 14.8068 72.5443 16.8927 72.5443 17.9743C72.5443 18.9785 72.5443 19.5193 71.1927 19.5193C70.7156 19.5193 70 19.4421 70 18.7468V7.1588C70 6.54077 70.7156 6.38627 71.1927 6.38627C72.3853 6.38627 72.4648 6.84978 72.5443 8.16308C72.6239 9.24463 72.4648 11.0215 74.055 11.0215C75.2477 11.0215 76.5199 8.78113 77.0765 8.08585C77.9511 6.92705 78.1896 6.38627 79.7798 6.38627C80.0183 6.38627 80.7339 6.38628 80.893 6.54078C80.893 7.39057 76.8379 10.9442 76.8379 12.721C76.8379 14.5751 80.4159 17.5107 81.052 19.2876C80.9725 19.3648 80.893 19.442 80.7339 19.442ZM83.9939 7.69958C83.4373 7.69958 83.1193 7.23603 83.1193 6.84977C83.1193 6.23174 83.3578 6 83.9939 6C84.4709 6 84.8685 6.38627 84.8685 6.77253C84.8685 7.23605 84.4709 7.69958 83.9939 7.69958ZM83.9939 19.5193C83.1988 19.5193 82.8807 19.133 82.8807 18.6695V12.1803C82.8807 11.5622 83.1988 11.0987 83.9144 11.0987C84.63 11.0987 84.948 11.3304 84.948 12.103V18.5923C84.948 19.2876 84.63 19.5193 83.9939 19.5193ZM93.6147 19.9056C92.8196 19.9056 92.1835 19.5193 91.3884 19.5193C89.6391 19.5193 89.4006 21.0644 89.4006 21.9914C89.4006 22.764 89.5596 24 88.4465 24C87.7309 24 87.4128 23.7683 87.4128 23.1502V12.103C87.4128 11.4077 87.9694 11.0987 88.526 11.0987C89.1621 11.0987 89.8777 11.3304 90.5138 11.3304C91.6269 11.3304 92.5015 10.6352 93.6147 10.6352C96.5566 10.6352 97.6697 13.03 97.6697 15.3476C97.6697 17.6652 96.0795 19.9056 93.6147 19.9056ZM92.263 12.1803C89.7186 12.1803 89.3211 14.4206 89.3211 15.3476C89.3211 16.7382 90.3547 18.3605 92.263 18.3605C93.8532 18.3605 95.2844 17.2017 95.2844 15.3476C95.2844 13.8026 94.4893 12.1803 92.263 12.1803ZM100.85 7.69958C100.294 7.69958 99.9755 7.23603 99.9755 6.84977C99.9755 6.23174 100.294 6 100.85 6C101.327 6 101.725 6.38627 101.725 6.77253C101.725 7.23605 101.327 7.69958 100.85 7.69958ZM100.85 19.5193C100.055 19.5193 99.8165 19.133 99.8165 18.6695V12.1803C99.8165 11.5622 100.055 11.0987 100.85 11.0987C101.486 11.0987 101.804 11.3304 101.804 12.103V18.5923C101.804 19.2876 101.486 19.5193 100.85 19.5193ZM106.734 19.9056C106.257 19.9056 104.031 19.8283 104.031 19.0558C104.031 18.6695 104.269 18.515 104.746 18.515C105.144 18.515 105.621 18.6695 106.098 18.6695C106.972 18.6695 107.847 18.3605 107.847 17.3562C107.847 15.0386 103.951 16.0429 103.951 13.3391C103.951 11.3305 105.859 10.6352 107.45 10.6352C107.768 10.6352 109.914 10.8669 109.914 11.3304C109.914 11.6395 109.437 11.7167 109.199 11.7167C108.96 11.7167 108.563 11.6395 108.404 11.6395C107.768 11.6395 106.416 11.794 106.416 13.1073C106.416 15.6567 110.63 14.1888 110.63 17.2017C110.63 19.3648 108.483 19.9056 106.734 19.9056ZM120.966 19.5193C120.092 19.5193 119.933 19.133 119.933 18.4378V14.8068C119.933 13.4163 119.058 12.1803 117.627 12.1803C115.56 12.1803 114.924 14.0343 114.924 15.3476V18.6695C114.924 19.133 114.446 19.5193 113.89 19.5193C113.254 19.5193 112.777 19.2103 112.777 18.5923V6.61802C112.777 6.23175 113.174 6 113.81 6C114.446 6 114.924 6.23176 114.924 6.77253V9.24465C114.924 10.2489 115.639 11.0987 116.832 11.0987C117.627 11.0987 118.343 10.6352 119.058 10.6352C121.125 10.6352 122 11.9485 122 13.4936V18.206C122 19.133 121.92 19.5193 120.966 19.5193Z" fill="#797E8E"/>
</svg>
